{
  "log": {
    "version": "1.2",
    "creator": {
      "name": "HAR Mock Server Test Generator",
      "version": "1.0"
    },
    "entries": [
      {
        "startedDateTime": "2025-01-05T10:00:00.000Z",
        "time": 150,
        "request": {
          "method": "GET",
          "url": "http://localhost:3000/api/users",
          "httpVersion": "HTTP/1.1",
          "headers": [
            {
              "name": "Accept",
              "value": "application/json"
            },
            {
              "name": "User-Agent",
              "value": "Mozilla/5.0 (Windows NT 10.0; Win64; x64) AppleWebKit/537.36"
            }
          ],
          "queryString": [],
          "cookies": [],
          "headersSize": -1,
          "bodySize": 0
        },
        "response": {
          "status": 200,
          "statusText": "OK",
          "httpVersion": "HTTP/1.1",
          "headers": [
            {
              "name": "Content-Type",
              "value": "application/json"
            },
            {
              "name": "Access-Control-Allow-Origin",
              "value": "*"
            }
          ],
          "content": {
            "size": 156,
            "mimeType": "application/json",
            "text": "{\"users\":[{\"id\":1,\"name\":\"张三\",\"email\":\"zhangsan@example.com\",\"role\":\"admin\"},{\"id\":2,\"name\":\"李四\",\"email\":\"lisi@example.com\",\"role\":\"user\"}],\"total\":2}"
          },
          "redirectURL": "",
          "headersSize": -1,
          "bodySize": 156
        },
        "cache": {},
        "timings": {
          "blocked": 0,
          "dns": 0,
          "connect": 0,
          "send": 1,
          "wait": 148,
          "receive": 1,
          "ssl": -1
        }
      },
      {
        "startedDateTime": "2025-01-05T10:01:00.000Z",
        "time": 200,
        "request": {
          "method": "GET",
          "url": "http://localhost:3000/api/users?page=1&limit=10&sort=name",
          "httpVersion": "HTTP/1.1",
          "headers": [
            {
              "name": "Accept",
              "value": "application/json"
            },
            {
              "name": "Authorization",
              "value": "Bearer eyJhbGciOiJIUzI1NiIsInR5cCI6IkpXVCJ9"
            }
          ],
          "queryString": [
            {
              "name": "page",
              "value": "1"
            },
            {
              "name": "limit",
              "value": "10"
            },
            {
              "name": "sort",
              "value": "name"
            }
          ],
          "cookies": [],
          "headersSize": -1,
          "bodySize": 0
        },
        "response": {
          "status": 200,
          "statusText": "OK",
          "httpVersion": "HTTP/1.1",
          "headers": [
            {
              "name": "Content-Type",
              "value": "application/json"
            },
            {
              "name": "X-Total-Count",
              "value": "25"
            }
          ],
          "content": {
            "size": 245,
            "mimeType": "application/json",
            "text": "{\"data\":[{\"id\":1,\"name\":\"Alice\",\"age\":25},{\"id\":2,\"name\":\"Bob\",\"age\":30},{\"id\":3,\"name\":\"Charlie\",\"age\":35}],\"pagination\":{\"page\":1,\"limit\":10,\"total\":25,\"pages\":3}}"
          },
          "redirectURL": "",
          "headersSize": -1,
          "bodySize": 245
        },
        "cache": {},
        "timings": {
          "blocked": 0,
          "dns": 0,
          "connect": 0,
          "send": 1,
          "wait": 198,
          "receive": 1,
          "ssl": -1
        }
      },
      {
        "startedDateTime": "2025-01-05T10:02:00.000Z",
        "time": 300,
        "request": {
          "method": "POST",
          "url": "http://localhost:3000/api/users",
          "httpVersion": "HTTP/1.1",
          "headers": [
            {
              "name": "Content-Type",
              "value": "application/json"
            },
            {
              "name": "Accept",
              "value": "application/json"
            },
            {
              "name": "Authorization",
              "value": "Bearer token123"
            }
          ],
          "queryString": [],
          "cookies": [],
          "headersSize": -1,
          "bodySize": 89,
          "postData": {
            "mimeType": "application/json",
            "text": "{\"name\":\"新用户\",\"email\":\"newuser@example.com\",\"age\":28,\"role\":\"user\"}"
          }
        },
        "response": {
          "status": 201,
          "statusText": "Created",
          "httpVersion": "HTTP/1.1",
          "headers": [
            {
              "name": "Content-Type",
              "value": "application/json"
            },
            {
              "name": "Location",
              "value": "/api/users/123"
            }
          ],
          "content": {
            "size": 125,
            "mimeType": "application/json",
            "text": "{\"id\":123,\"name\":\"新用户\",\"email\":\"newuser@example.com\",\"age\":28,\"role\":\"user\",\"createdAt\":\"2025-01-05T10:02:00Z\"}"
          },
          "redirectURL": "",
          "headersSize": -1,
          "bodySize": 125
        },
        "cache": {},
        "timings": {
          "blocked": 0,
          "dns": 0,
          "connect": 0,
          "send": 2,
          "wait": 296,
          "receive": 2,
          "ssl": -1
        }
      },
      {
        "startedDateTime": "2025-01-05T10:03:00.000Z",
        "time": 180,
        "request": {
          "method": "POST",
          "url": "http://localhost:3000/api/login",
          "httpVersion": "HTTP/1.1",
          "headers": [
            {
              "name": "Content-Type",
              "value": "application/json"
            },
            {
              "name": "Accept",
              "value": "application/json"
            }
          ],
          "queryString": [],
          "cookies": [],
          "headersSize": -1,
          "bodySize": 52,
          "postData": {
            "mimeType": "application/json",
            "text": "{\"username\":\"admin\",\"password\":\"password123\"}"
          }
        },
        "response": {
          "status": 200,
          "statusText": "OK",
          "httpVersion": "HTTP/1.1",
          "headers": [
            {
              "name": "Content-Type",
              "value": "application/json"
            },
            {
              "name": "Set-Cookie",
              "value": "session=abc123; HttpOnly; Secure"
            }
          ],
          "content": {
            "size": 156,
            "mimeType": "application/json",
            "text": "{\"success\":true,\"token\":\"eyJhbGciOiJIUzI1NiIsInR5cCI6IkpXVCJ9.eyJzdWIiOiIxMjM0NTY3ODkwIiwibmFtZSI6IkpvaG4gRG9lIiwiaWF0IjoxNTE2MjM5MDIyfQ\",\"user\":{\"id\":1,\"username\":\"admin\",\"role\":\"administrator\"}}"
          },
          "redirectURL": "",
          "headersSize": -1,
          "bodySize": 156
        },
        "cache": {},
        "timings": {
          "blocked": 0,
          "dns": 0,
          "connect": 0,
          "send": 1,
          "wait": 178,
          "receive": 1,
          "ssl": -1
        }
      },
      {
        "startedDateTime": "2025-01-05T10:04:00.000Z",
        "time": 120,
        "request": {
          "method": "PUT",
          "url": "http://localhost:3000/api/users/123",
          "httpVersion": "HTTP/1.1",
          "headers": [
            {
              "name": "Content-Type",
              "value": "application/json"
            },
            {
              "name": "Accept",
              "value": "application/json"
            },
            {
              "name": "Authorization",
              "value": "Bearer token123"
            }
          ],
          "queryString": [],
          "cookies": [],
          "headersSize": -1,
          "bodySize": 78,
          "postData": {
            "mimeType": "application/json",
            "text": "{\"name\":\"更新用户\",\"email\":\"updated@example.com\",\"age\":30}"
          }
        },
        "response": {
          "status": 200,
          "statusText": "OK",
          "httpVersion": "HTTP/1.1",
          "headers": [
            {
              "name": "Content-Type",
              "value": "application/json"
            }
          ],
          "content": {
            "size": 135,
            "mimeType": "application/json",
            "text": "{\"id\":123,\"name\":\"更新用户\",\"email\":\"updated@example.com\",\"age\":30,\"role\":\"user\",\"updatedAt\":\"2025-01-05T10:04:00Z\"}"
          },
          "redirectURL": "",
          "headersSize": -1,
          "bodySize": 135
        },
        "cache": {},
        "timings": {
          "blocked": 0,
          "dns": 0,
          "connect": 0,
          "send": 1,
          "wait": 118,
          "receive": 1,
          "ssl": -1
        }
      },
      {
        "startedDateTime": "2025-01-05T10:05:00.000Z",
        "time": 100,
        "request": {
          "method": "DELETE",
          "url": "http://localhost:3000/api/users/123",
          "httpVersion": "HTTP/1.1",
          "headers": [
            {
              "name": "Accept",
              "value": "application/json"
            },
            {
              "name": "Authorization",
              "value": "Bearer token123"
            }
          ],
          "queryString": [],
          "cookies": [],
          "headersSize": -1,
          "bodySize": 0
        },
        "response": {
          "status": 204,
          "statusText": "No Content",
          "httpVersion": "HTTP/1.1",
          "headers": [],
          "content": {
            "size": 0,
            "mimeType": "",
            "text": ""
          },
          "redirectURL": "",
          "headersSize": -1,
          "bodySize": 0
        },
        "cache": {},
        "timings": {
          "blocked": 0,
          "dns": 0,
          "connect": 0,
          "send": 1,
          "wait": 98,
          "receive": 1,
          "ssl": -1
        }
      },
      {
        "startedDateTime": "2025-01-05T10:06:00.000Z",
        "time": 250,
        "request": {
          "method": "GET",
          "url": "http://localhost:3000/api/products?category=electronics&price_min=100&price_max=1000",
          "httpVersion": "HTTP/1.1",
          "headers": [
            {
              "name": "Accept",
              "value": "application/json"
            }
          ],
          "queryString": [
            {
              "name": "category",
              "value": "electronics"
            },
            {
              "name": "price_min",
              "value": "100"
            },
            {
              "name": "price_max",
              "value": "1000"
            }
          ],
          "cookies": [],
          "headersSize": -1,
          "bodySize": 0
        },
        "response": {
          "status": 200,
          "statusText": "OK",
          "httpVersion": "HTTP/1.1",
          "headers": [
            {
              "name": "Content-Type",
              "value": "application/json"
            }
          ],
          "content": {
            "size": 312,
            "mimeType": "application/json",
            "text": "{\"products\":[{\"id\":1,\"name\":\"智能手机\",\"price\":599,\"category\":\"electronics\",\"stock\":50},{\"id\":2,\"name\":\"笔记本电脑\",\"price\":899,\"category\":\"electronics\",\"stock\":25},{\"id\":3,\"name\":\"无线耳机\",\"price\":199,\"category\":\"electronics\",\"stock\":100}],\"total\":3,\"category\":\"electronics\"}"
          },
          "redirectURL": "",
          "headersSize": -1,
          "bodySize": 312
        },
        "cache": {},
        "timings": {
          "blocked": 0,
          "dns": 0,
          "connect": 0,
          "send": 1,
          "wait": 248,
          "receive": 1,
          "ssl": -1
        }
      },
      {
        "startedDateTime": "2025-01-05T10:07:00.000Z",
        "time": 400,
        "request": {
          "method": "POST",
          "url": "http://localhost:3000/api/orders",
          "httpVersion": "HTTP/1.1",
          "headers": [
            {
              "name": "Content-Type",
              "value": "application/json"
            },
            {
              "name": "Accept",
              "value": "application/json"
            },
            {
              "name": "Authorization",
              "value": "Bearer token123"
            }
          ],
          "queryString": [],
          "cookies": [],
          "headersSize": -1,
          "bodySize": 156,
          "postData": {
            "mimeType": "application/json",
            "text": "{\"userId\":123,\"items\":[{\"productId\":1,\"quantity\":2,\"price\":599},{\"productId\":3,\"quantity\":1,\"price\":199}],\"totalAmount\":1397,\"shippingAddress\":\"北京市朝阳区\"}"
          }
        },
        "response": {
          "status": 201,
          "statusText": "Created",
          "httpVersion": "HTTP/1.1",
          "headers": [
            {
              "name": "Content-Type",
              "value": "application/json"
            },
            {
              "name": "Location",
              "value": "/api/orders/ORD-2025-001"
            }
          ],
          "content": {
            "size": 245,
            "mimeType": "application/json",
            "text": "{\"orderId\":\"ORD-2025-001\",\"userId\":123,\"status\":\"pending\",\"items\":[{\"productId\":1,\"quantity\":2,\"price\":599},{\"productId\":3,\"quantity\":1,\"price\":199}],\"totalAmount\":1397,\"createdAt\":\"2025-01-05T10:07:00Z\"}"
          },
          "redirectURL": "",
          "headersSize": -1,
          "bodySize": 245
        },
        "cache": {},
        "timings": {
          "blocked": 0,
          "dns": 0,
          "connect": 0,
          "send": 2,
          "wait": 396,
          "receive": 2,
          "ssl": -1
        }
      },
      {
        "startedDateTime": "2025-01-05T10:08:00.000Z",
        "time": 80,
        "request": {
          "method": "GET",
          "url": "http://localhost:3000/api/users/404",
          "httpVersion": "HTTP/1.1",
          "headers": [
            {
              "name": "Accept",
              "value": "application/json"
            }
          ],
          "queryString": [],
          "cookies": [],
          "headersSize": -1,
          "bodySize": 0
        },
        "response": {
          "status": 404,
          "statusText": "Not Found",
          "httpVersion": "HTTP/1.1",
          "headers": [
            {
              "name": "Content-Type",
              "value": "application/json"
            }
          ],
          "content": {
            "size": 65,
            "mimeType": "application/json",
            "text": "{\"error\":\"User not found\",\"code\":\"USER_NOT_FOUND\",\"message\":\"用户不存在\"}"
          },
          "redirectURL": "",
          "headersSize": -1,
          "bodySize": 65
        },
        "cache": {},
        "timings": {
          "blocked": 0,
          "dns": 0,
          "connect": 0,
          "send": 1,
          "wait": 78,
          "receive": 1,
          "ssl": -1
        }
      },
      {
        "startedDateTime": "2025-01-05T10:09:00.000Z",
        "time": 50,
        "request": {
          "method": "POST",
          "url": "http://localhost:3000/api/login",
          "httpVersion": "HTTP/1.1",
          "headers": [
            {
              "name": "Content-Type",
              "value": "application/json"
            }
          ],
          "queryString": [],
          "cookies": [],
          "headersSize": -1,
          "bodySize": 48,
          "postData": {
            "mimeType": "application/json",
            "text": "{\"username\":\"admin\",\"password\":\"wrongpass\"}"
          }
        },
        "response": {
          "status": 401,
          "statusText": "Unauthorized",
          "httpVersion": "HTTP/1.1",
          "headers": [
            {
              "name": "Content-Type",
              "value": "application/json"
            }
          ],
          "content": {
            "size": 78,
            "mimeType": "application/json",
            "text": "{\"error\":\"Invalid credentials\",\"code\":\"AUTH_FAILED\",\"message\":\"用户名或密码错误\"}"
          },
          "redirectURL": "",
          "headersSize": -1,
          "bodySize": 78
        },
        "cache": {},
        "timings": {
          "blocked": 0,
          "dns": 0,
          "connect": 0,
          "send": 1,
          "wait": 48,
          "receive": 1,
          "ssl": -1
        }
      },
      {
        "startedDateTime": "2025-01-05T10:10:00.000Z",
        "time": 350,
        "request": {
          "method": "GET",
          "url": "http://localhost:3000/api/reports/sales?start_date=2025-01-01&end_date=2025-01-31&format=json",
          "httpVersion": "HTTP/1.1",
          "headers": [
            {
              "name": "Accept",
              "value": "application/json"
            },
            {
              "name": "Authorization",
              "value": "Bearer admin_token"
            }
          ],
          "queryString": [
            {
              "name": "start_date",
              "value": "2025-01-01"
            },
            {
              "name": "end_date",
              "value": "2025-01-31"
            },
            {
              "name": "format",
              "value": "json"
            }
          ],
          "cookies": [],
          "headersSize": -1,
          "bodySize": 0
        },
        "response": {
          "status": 200,
          "statusText": "OK",
          "httpVersion": "HTTP/1.1",
          "headers": [
            {
              "name": "Content-Type",
              "value": "application/json"
            },
            {
              "name": "Cache-Control",
              "value": "no-cache"
            }
          ],
          "content": {
            "size": 456,
            "mimeType": "application/json",
            "text": "{\"report\":{\"period\":{\"start\":\"2025-01-01\",\"end\":\"2025-01-31\"},\"summary\":{\"totalSales\":125000,\"totalOrders\":450,\"averageOrderValue\":277.78,\"topProducts\":[{\"id\":1,\"name\":\"智能手机\",\"sales\":45000},{\"id\":2,\"name\":\"笔记本电脑\",\"sales\":35000}]},\"dailyStats\":[{\"date\":\"2025-01-01\",\"sales\":4500,\"orders\":18},{\"date\":\"2025-01-02\",\"sales\":3200,\"orders\":12}]}}"
          },
          "redirectURL": "",
          "headersSize": -1,
          "bodySize": 456
        },
        "cache": {},
        "timings": {
          "blocked": 0,
          "dns": 0,
          "connect": 0,
          "send": 1,
          "wait": 348,
          "receive": 1,
          "ssl": -1
        }
      },
      {
        "startedDateTime": "2025-01-05T10:11:00.000Z",
        "time": 200,
        "request": {
          "method": "PATCH",
          "url": "http://localhost:3000/api/users/123/status",
          "httpVersion": "HTTP/1.1",
          "headers": [
            {
              "name": "Content-Type",
              "value": "application/json"
            },
            {
              "name": "Authorization",
              "value": "Bearer admin_token"
            }
          ],
          "queryString": [],
          "cookies": [],
          "headersSize": -1,
          "bodySize": 25,
          "postData": {
            "mimeType": "application/json",
            "text": "{\"status\":\"inactive\"}"
          }
        },
        "response": {
          "status": 200,
          "statusText": "OK",
          "httpVersion": "HTTP/1.1",
          "headers": [
            {
              "name": "Content-Type",
              "value": "application/json"
            }
          ],
          "content": {
            "size": 89,
            "mimeType": "application/json",
            "text": "{\"id\":123,\"status\":\"inactive\",\"updatedAt\":\"2025-01-05T10:11:00Z\",\"message\":\"用户状态已更新\"}"
          },
          "redirectURL": "",
          "headersSize": -1,
          "bodySize": 89
        },
        "cache": {},
        "timings": {
          "blocked": 0,
          "dns": 0,
          "connect": 0,
          "send": 1,
          "wait": 198,
          "receive": 1,
          "ssl": -1
        }
      },
      {
        "startedDateTime": "2025-01-05T10:12:00.000Z",
        "time": 500,
        "request": {
          "method": "POST",
          "url": "http://localhost:3000/api/upload",
          "httpVersion": "HTTP/1.1",
          "headers": [
            {
              "name": "Content-Type",
              "value": "multipart/form-data; boundary=----WebKitFormBoundary7MA4YWxkTrZu0gW"
            },
            {
              "name": "Authorization",
              "value": "Bearer token123"
            }
          ],
          "queryString": [],
          "cookies": [],
          "headersSize": -1,
          "bodySize": 1024,
          "postData": {
            "mimeType": "multipart/form-data",
            "text": "------WebKitFormBoundary7MA4YWxkTrZu0gW\r\nContent-Disposition: form-data; name=\"file\"; filename=\"avatar.jpg\"\r\nContent-Type: image/jpeg\r\n\r\n[Binary file content]\r\n------WebKitFormBoundary7MA4YWxkTrZu0gW--\r\n"
          }
        },
        "response": {
          "status": 200,
          "statusText": "OK",
          "httpVersion": "HTTP/1.1",
          "headers": [
            {
              "name": "Content-Type",
              "value": "application/json"
            }
          ],
          "content": {
            "size": 156,
            "mimeType": "application/json",
            "text": "{\"success\":true,\"fileId\":\"file_123456\",\"filename\":\"avatar.jpg\",\"size\":1024,\"url\":\"/uploads/avatar_123456.jpg\",\"uploadedAt\":\"2025-01-05T10:12:00Z\"}"
          },
          "redirectURL": "",
          "headersSize": -1,
          "bodySize": 156
        },
        "cache": {},
        "timings": {
          "blocked": 0,
          "dns": 0,
          "connect": 0,
          "send": 5,
          "wait": 490,
          "receive": 5,
          "ssl": -1
        }
      },
      {
        "startedDateTime": "2025-01-05T10:13:00.000Z",
        "time": 60,
        "request": {
          "method": "GET",
          "url": "http://localhost:3000/api/health",
          "httpVersion": "HTTP/1.1",
          "headers": [
            {
              "name": "Accept",
              "value": "text/plain"
            }
          ],
          "queryString": [],
          "cookies": [],
          "headersSize": -1,
          "bodySize": 0
        },
        "response": {
          "status": 200,
          "statusText": "OK",
          "httpVersion": "HTTP/1.1",
          "headers": [
            {
              "name": "Content-Type",
              "value": "text/plain"
            }
          ],
          "content": {
            "size": 2,
            "mimeType": "text/plain",
            "text": "OK"
          },
          "redirectURL": "",
          "headersSize": -1,
          "bodySize": 2
        },
        "cache": {},
        "timings": {
          "blocked": 0,
          "dns": 0,
          "connect": 0,
          "send": 1,
          "wait": 58,
          "receive": 1,
          "ssl": -1
        }
      },
      {
        "startedDateTime": "2025-01-05T10:14:00.000Z",
        "time": 150,
        "request": {
          "method": "GET",
          "url": "http://localhost:3000/api/config",
          "httpVersion": "HTTP/1.1",
          "headers": [
            {
              "name": "Accept",
              "value": "application/xml"
            }
          ],
          "queryString": [],
          "cookies": [],
          "headersSize": -1,
          "bodySize": 0
        },
        "response": {
          "status": 200,
          "statusText": "OK",
          "httpVersion": "HTTP/1.1",
          "headers": [
            {
              "name": "Content-Type",
              "value": "application/xml"
            }
          ],
          "content": {
            "size": 156,
            "mimeType": "application/xml",
            "text": "<?xml version=\"1.0\" encoding=\"UTF-8\"?>\n<config>\n  <app>\n    <name>HAR Mock Server</name>\n    <version>1.0.0</version>\n  </app>\n  <database>\n    <host>localhost</host>\n    <port>5432</port>\n  </database>\n</config>"
          },
          "redirectURL": "",
          "headersSize": -1,
          "bodySize": 156
        },
        "cache": {},
        "timings": {
          "blocked": 0,
          "dns": 0,
          "connect": 0,
          "send": 1,
          "wait": 148,
          "receive": 1,
          "ssl": -1
        }
      }
    ]
  }
}